\relax 
\providecommand\hyper@newdestlabel[2]{}
\citation{iso95}
\@writefile{toc}{\contentsline {chapter}{\numberline {5}\unhbox \voidb@x \hbox {{\sf  {tu}}Prolog}{} Libraries}{57}{chapter.5}}
\@writefile{lof}{\addvspace {10\p@ }}
\@writefile{lot}{\addvspace {10\p@ }}
\newlabel{ch:standard-libraries}{{5}{57}{\tuprolog {} Libraries}{chapter.5}{}}
\@writefile{toc}{\contentsline {section}{\numberline {5.1}BasicLibrary}{59}{section.5.1}}
\newlabel{sec:basic-library}{{5.1}{59}{BasicLibrary}{section.5.1}{}}
\@writefile{toc}{\contentsline {subsection}{\numberline {5.1.1}Predicates}{59}{subsection.5.1.1}}
\@writefile{toc}{\contentsline {subsubsection}{\numberline {5.1.1.1}Type Testing}{59}{subsubsection.5.1.1.1}}
\@writefile{toc}{\contentsline {subsubsection}{\numberline {5.1.1.2}Term Creation, Decomposition and Unification}{60}{subsubsection.5.1.1.2}}
\citation{ss94}
\@writefile{toc}{\contentsline {subsubsection}{\numberline {5.1.1.3}Occurs Check}{62}{subsubsection.5.1.1.3}}
\@writefile{toc}{\contentsline {subsubsection}{\numberline {5.1.1.4}Expression and Term Comparison}{63}{subsubsection.5.1.1.4}}
\@writefile{toc}{\contentsline {subsubsection}{\numberline {5.1.1.5}Finding Solutions}{63}{subsubsection.5.1.1.5}}
\@writefile{toc}{\contentsline {subsubsection}{\numberline {5.1.1.6}Control Management}{64}{subsubsection.5.1.1.6}}
\citation{iso95}
\@writefile{toc}{\contentsline {subsubsection}{\numberline {5.1.1.7}Clause Retrieval, Creation and Destruction}{65}{subsubsection.5.1.1.7}}
\@writefile{toc}{\contentsline {subsubsection}{\numberline {5.1.1.8}Operator Management}{66}{subsubsection.5.1.1.8}}
\@writefile{toc}{\contentsline {subsubsection}{\numberline {5.1.1.9}Flag Management}{66}{subsubsection.5.1.1.9}}
\@writefile{toc}{\contentsline {subsubsection}{\numberline {5.1.1.10}Actions on Theories and Engines}{67}{subsubsection.5.1.1.10}}
\@writefile{toc}{\contentsline {subsubsection}{\numberline {5.1.1.11}Spy Events}{69}{subsubsection.5.1.1.11}}
\@writefile{toc}{\contentsline {subsubsection}{\numberline {5.1.1.12}Auxiliary predicates}{69}{subsubsection.5.1.1.12}}
\@writefile{toc}{\contentsline {subsection}{\numberline {5.1.2}Functors}{71}{subsection.5.1.2}}
\@writefile{toc}{\contentsline {subsection}{\numberline {5.1.3}Operators}{71}{subsection.5.1.3}}
\@writefile{lot}{\contentsline {table}{\numberline {5.1}{\ignorespaces BasicLibrary operators.\relax }}{73}{table.caption.33}}
\newlabel{tab:basiclibrary-operators}{{5.1}{73}{BasicLibrary operators.\relax }{table.caption.33}{}}
\@writefile{toc}{\contentsline {section}{\numberline {5.2}ISOLibrary}{74}{section.5.2}}
\newlabel{sec:iso-library}{{5.2}{74}{ISOLibrary}{section.5.2}{}}
\@writefile{toc}{\contentsline {subsection}{\numberline {5.2.1}Predicates}{74}{subsection.5.2.1}}
\@writefile{toc}{\contentsline {subsubsection}{\numberline {5.2.1.1}Type Testing}{74}{subsubsection.5.2.1.1}}
\@writefile{toc}{\contentsline {subsubsection}{\numberline {5.2.1.2}Atoms Processing}{74}{subsubsection.5.2.1.2}}
\@writefile{toc}{\contentsline {subsection}{\numberline {5.2.2}Functors}{76}{subsection.5.2.2}}
\@writefile{toc}{\contentsline {subsection}{\numberline {5.2.3}Operators}{77}{subsection.5.2.3}}
\@writefile{lot}{\contentsline {table}{\numberline {5.2}{\ignorespaces ISOLibrary operators.\relax }}{77}{table.caption.34}}
\newlabel{tab:isolibrary-operators}{{5.2}{77}{ISOLibrary operators.\relax }{table.caption.34}{}}
\@writefile{toc}{\contentsline {subsection}{\numberline {5.2.4}Flags}{77}{subsection.5.2.4}}
\@writefile{lot}{\contentsline {table}{\numberline {5.3}{\ignorespaces ISOLibrary flags. Any tentative to modify unmodifiable flags will result into a \texttt  {permission\_error} exception.\relax }}{77}{table.caption.35}}
\newlabel{tab:isolibrary-flags}{{5.3}{77}{ISOLibrary flags. Any tentative to modify unmodifiable flags will result into a \texttt {permission\_error} exception.\relax }{table.caption.35}{}}
\@writefile{toc}{\contentsline {section}{\numberline {5.3}IOLibrary}{78}{section.5.3}}
\newlabel{sec:io-library}{{5.3}{78}{IOLibrary}{section.5.3}{}}
\@writefile{toc}{\contentsline {subsection}{\numberline {5.3.1}Predicates}{78}{subsection.5.3.1}}
\@writefile{toc}{\contentsline {subsubsection}{\numberline {5.3.1.1}General I/O}{78}{subsubsection.5.3.1.1}}
\@writefile{toc}{\contentsline {subsubsection}{\numberline {5.3.1.2}Helper Predicates}{83}{subsubsection.5.3.1.2}}
\@writefile{toc}{\contentsline {subsubsection}{\numberline {5.3.1.3}Random Generation of Numbers}{85}{subsubsection.5.3.1.3}}
\@writefile{toc}{\contentsline {section}{\numberline {5.4}ThreadLibrary}{85}{section.5.4}}
\newlabel{sec:thread-library}{{5.4}{85}{ThreadLibrary}{section.5.4}{}}
\@writefile{toc}{\contentsline {subsection}{\numberline {5.4.1}Predicates}{86}{subsection.5.4.1}}
\@writefile{toc}{\contentsline {subsubsection}{\numberline {5.4.1.1}Creating and deleting threads}{86}{subsubsection.5.4.1.1}}
\newlabel{box:thread-internals}{{\caption@xref {box:thread-internals}{ on input line 1106}}{87}{ThreadLibrary}{Item.22}{}}
\@writefile{toc}{\contentsline {subsubsection}{\numberline {5.4.1.2}Inter-thread communication via queues}{89}{subsubsection.5.4.1.2}}
\@writefile{toc}{\contentsline {subsubsection}{\numberline {5.4.1.3}Thread synchronization via mutual exclusion}{91}{subsubsection.5.4.1.3}}
\@writefile{toc}{\contentsline {subsection}{\numberline {5.4.2}Examples}{93}{subsection.5.4.2}}
\newlabel{ssec:threadlibrary-examples}{{5.4.2}{93}{Examples}{subsection.5.4.2}{}}
\@writefile{toc}{\contentsline {subsubsection}{\numberline {5.4.2.1}Factorial of two numbers}{94}{subsubsection.5.4.2.1}}
\@writefile{toc}{\contentsline {subsubsection}{\numberline {5.4.2.2}Father and child communicating via a public queue}{94}{subsubsection.5.4.2.2}}
\@writefile{toc}{\contentsline {subsubsection}{\numberline {5.4.2.3}Father and children communicating via a private queue}{95}{subsubsection.5.4.2.3}}
\@writefile{lof}{\contentsline {figure}{\numberline {5.1}{\ignorespaces Execution flows in the third example.\relax }}{96}{figure.caption.37}}
\newlabel{fig:thread-example}{{5.1}{96}{Execution flows in the third example.\relax }{figure.caption.37}{}}
\@writefile{toc}{\contentsline {subsubsection}{\numberline {5.4.2.4}Synchronizing thread interactions}{97}{subsubsection.5.4.2.4}}
\@writefile{lof}{\contentsline {figure}{\numberline {5.2}{\ignorespaces Execution flows in the mutex example.\relax }}{98}{figure.caption.38}}
\newlabel{fig:thread-exampleMutex}{{5.2}{98}{Execution flows in the mutex example.\relax }{figure.caption.38}{}}
\citation{bra00}
\@writefile{toc}{\contentsline {subsubsection}{\numberline {5.4.2.5}Flattening and manipulating lists}{99}{subsubsection.5.4.2.5}}
\@writefile{toc}{\contentsline {section}{\numberline {5.5}DCGLibrary}{99}{section.5.5}}
\newlabel{sec:dgc-library}{{5.5}{99}{DCGLibrary}{section.5.5}{}}
\@writefile{lot}{\contentsline {table}{\numberline {5.4}{\ignorespaces The sequential version of the list manipulation program.  Query: \texttt  {?- start([[[2,2],2,2,1],[4,[3],2],[9,8,9,2]], 3, 2).}\relax }}{100}{table.caption.39}}
\newlabel{tab:thread-exampleFlatList}{{5.4}{100}{The sequential version of the list manipulation program.\\ Query: \texttt {?- start([[[2,2],2,2,1],[4,[3],2],[9,8,9,2]], 3, 2).}\relax }{table.caption.39}{}}
\@writefile{lot}{\contentsline {table}{\numberline {5.5}{\ignorespaces The sequential version (top) and the concurrent (bottom) version of the list manipulation program.  Query: \texttt  {?- start([[[2,2],2,2,1],[4,[3],2],[9,8,9,2]], 3, 2).}\relax }}{101}{table.caption.40}}
\newlabel{tab:thread-exampleFlatListConcurrent}{{5.5}{101}{The sequential version (top) and the concurrent (bottom) version of the list manipulation program.\\ Query: \texttt {?- start([[[2,2],2,2,1],[4,[3],2],[9,8,9,2]], 3, 2).}\relax }{table.caption.40}{}}
\@writefile{lof}{\contentsline {figure}{\numberline {5.3}{\ignorespaces The DCG Library example in the \unhbox \voidb@x \hbox {{\sf  {tu}}Prolog}{} GUI (note the explicit library loading directive).\relax }}{102}{figure.caption.41}}
\newlabel{fig:dcg-example}{{5.3}{102}{The DCG Library example in the \tuprolog {} GUI (note the explicit library loading directive).\relax }{figure.caption.41}{}}
\@writefile{toc}{\contentsline {subsection}{\numberline {5.5.1}Predicates}{102}{subsection.5.5.1}}
\@writefile{toc}{\contentsline {subsection}{\numberline {5.5.2}Operators}{103}{subsection.5.5.2}}
\@writefile{lot}{\contentsline {table}{\numberline {5.6}{\ignorespaces DCGLibrary operators.\relax }}{104}{table.caption.42}}
\newlabel{tab:dcglibrary-operators}{{5.6}{104}{DCGLibrary operators.\relax }{table.caption.42}{}}
\@writefile{toc}{\contentsline {section}{\numberline {5.6}ISOIOLibrary}{104}{section.5.6}}
\newlabel{sec:isoio-library}{{5.6}{104}{ISOIOLibrary}{section.5.6}{}}
\@writefile{lof}{\contentsline {figure}{\numberline {5.4}{\ignorespaces Comparison between the I/O predicates provided by IOLibrary and the ISO standard specification. Bold style indicates missing predicates, plain style indicates existing functionalities to be refactored, improved, or be provided with a different signature to be ISO-compliant.\relax }}{105}{figure.caption.43}}
\newlabel{fig:isoiolibrary-table}{{5.4}{105}{Comparison between the I/O predicates provided by IOLibrary and the ISO standard specification. Bold style indicates missing predicates, plain style indicates existing functionalities to be refactored, improved, or be provided with a different signature to be ISO-compliant.\relax }{figure.caption.43}{}}
\@writefile{toc}{\contentsline {subsection}{\numberline {5.6.1}Predicates}{106}{subsection.5.6.1}}
\@writefile{toc}{\contentsline {subsection}{\numberline {5.6.2}Options}{115}{subsection.5.6.2}}
\@writefile{lot}{\contentsline {table}{\numberline {5.7}{\ignorespaces Term writing rules: canonical form and operator notation.\relax }}{116}{table.caption.44}}
\newlabel{tab:isoiolibrary-write-terms}{{5.7}{116}{Term writing rules: canonical form and operator notation.\relax }{table.caption.44}{}}
\@writefile{lot}{\contentsline {table}{\numberline {5.8}{\ignorespaces The default configuration of the standard I/O streams.\relax }}{118}{table.caption.45}}
\newlabel{tab:isoiolibrary-user-streams}{{5.8}{118}{The default configuration of the standard I/O streams.\relax }{table.caption.45}{}}
\@writefile{toc}{\contentsline {section}{\numberline {5.7}SocketLibrary}{119}{section.5.7}}
\newlabel{sec:socket-library}{{5.7}{119}{SocketLibrary}{section.5.7}{}}
\@writefile{toc}{\contentsline {subsection}{\numberline {5.7.1}Predicates}{120}{subsection.5.7.1}}
\@writefile{toc}{\contentsline {subsection}{\numberline {5.7.2}Operators}{124}{subsection.5.7.2}}
\@writefile{toc}{\contentsline {subsection}{\numberline {5.7.3}Use from the Java side: term hierarchy extension}{124}{subsection.5.7.3}}
\@setckpt{tuprolog-libraries}{
\setcounter{page}{126}
\setcounter{equation}{0}
\setcounter{enumi}{4}
\setcounter{enumii}{0}
\setcounter{enumiii}{0}
\setcounter{enumiv}{0}
\setcounter{footnote}{4}
\setcounter{mpfootnote}{0}
\setcounter{part}{0}
\setcounter{chapter}{5}
\setcounter{section}{7}
\setcounter{subsection}{3}
\setcounter{subsubsection}{0}
\setcounter{paragraph}{0}
\setcounter{subparagraph}{0}
\setcounter{figure}{4}
\setcounter{table}{8}
\setcounter{Item}{22}
\setcounter{Hfootnote}{13}
\setcounter{bookmark@seq@number}{78}
\setcounter{FancyVerbLine}{15}
\setcounter{ContinuedFloat}{0}
\setcounter{section@level}{2}
}
